[gd_scene load_steps=5 format=3 uid="uid://hjuof4bvbk3q"]

[ext_resource type="Texture2D" uid="uid://j01er5f5fsbb" path="res://assets/sprites/intro_tilemap_packed.png" id="1_6dbu8"]
[ext_resource type="AudioStream" uid="uid://c5g8lhkbq8npf" path="res://assets/musics/intro.mp3" id="2_ayhc5"]

[sub_resource type="TileSetAtlasSource" id="TileSetAtlasSource_yk1cy"]
resource_name = "intro_tileset"
texture = ExtResource("1_6dbu8")
0:0/0 = 0
1:0/0 = 0
2:0/0 = 0
3:0/0 = 0
4:0/0 = 0
4:0/0/terrain_set = 0
4:0/0/terrain = 0
4:0/0/terrains_peering_bit/bottom_side = 0
5:0/0 = 0
6:0/0 = 0
7:0/0 = 0
8:0/0 = 0
9:0/0 = 0
10:0/0 = 0
11:0/0 = 0
0:1/0 = 0
1:1/0 = 0
2:1/0 = 0
3:1/0 = 0
4:1/0 = 0
4:1/0/terrain_set = 0
4:1/0/terrain = 0
4:1/0/terrains_peering_bit/top_side = 0
5:1/0 = 0
6:1/0 = 0
7:1/0 = 0
8:1/0 = 0
9:1/0 = 0
10:1/0 = 0
11:1/0 = 0
0:2/0 = 0
1:2/0 = 0
2:2/0 = 0
3:2/0 = 0
4:2/0 = 0
5:2/0 = 0
6:2/0 = 0
7:2/0 = 0
8:2/0 = 0
9:2/0 = 0
10:2/0 = 0
11:2/0 = 0
0:3/0 = 0
1:3/0 = 0
2:3/0 = 0
3:3/0 = 0
4:3/0 = 0
5:3/0 = 0
6:3/0 = 0
7:3/0 = 0
8:3/0 = 0
9:3/0 = 0
10:3/0 = 0
11:3/0 = 0
0:4/0 = 0
1:4/0 = 0
2:4/0 = 0
3:4/0 = 0
4:4/0 = 0
5:4/0 = 0
6:4/0 = 0
7:4/0 = 0
8:4/0 = 0
9:4/0 = 0
10:4/0 = 0
11:4/0 = 0
0:5/0 = 0
1:5/0 = 0
2:5/0 = 0
3:5/0 = 0
4:5/0 = 0
5:5/0 = 0
6:5/0 = 0
7:5/0 = 0
8:5/0 = 0
9:5/0 = 0
10:5/0 = 0
11:5/0 = 0
0:6/0 = 0
1:6/0 = 0
2:6/0 = 0
3:6/0 = 0
4:6/0 = 0
5:6/0 = 0
6:6/0 = 0
7:6/0 = 0
8:6/0 = 0
9:6/0 = 0
10:6/0 = 0
11:6/0 = 0
0:7/0 = 0
1:7/0 = 0
2:7/0 = 0
3:7/0 = 0
4:7/0 = 0
5:7/0 = 0
6:7/0 = 0
7:7/0 = 0
8:7/0 = 0
9:7/0 = 0
10:7/0 = 0
11:7/0 = 0
0:8/0 = 0
1:8/0 = 0
2:8/0 = 0
3:8/0 = 0
4:8/0 = 0
5:8/0 = 0
6:8/0 = 0
7:8/0 = 0
8:8/0 = 0
9:8/0 = 0
10:8/0 = 0
11:8/0 = 0
0:9/0 = 0
1:9/0 = 0
2:9/0 = 0
3:9/0 = 0
4:9/0 = 0
5:9/0 = 0
6:9/0 = 0
7:9/0 = 0
8:9/0 = 0
9:9/0 = 0
10:9/0 = 0
11:9/0 = 0
0:10/0 = 0
1:10/0 = 0
2:10/0 = 0
3:10/0 = 0
4:10/0 = 0
5:10/0 = 0
6:10/0 = 0
7:10/0 = 0
8:10/0 = 0
9:10/0 = 0
10:10/0 = 0
11:10/0 = 0

[sub_resource type="TileSet" id="TileSet_4iscc"]
terrain_set_0/mode = 0
terrain_set_0/terrain_0/name = "Tree"
terrain_set_0/terrain_0/color = Color(0.0431373, 0.466667, 0.12549, 1)
sources/0 = SubResource("TileSetAtlasSource_yk1cy")

[node name="Intro" type="TileMap"]
tile_set = SubResource("TileSet_4iscc")
format = 2
layer_0/name = "background"
layer_0/tile_data = PackedInt32Array(0, 0, 0, 65536, 65536, 0, 131072, 0, 0, 196608, 65536, 0, 262144, 0, 0, 327680, 0, 0, 393216, 0, 0, 458752, 0, 0, 524288, 0, 0, 589824, 65536, 0, 655360, 0, 0, 720896, 0, 0, 786432, 0, 0, 851968, 0, 0, 917504, 65536, 0, 1, 0, 0, 65537, 0, 0, 131073, 0, 0, 196609, 0, 0, 262145, 0, 0, 327681, 0, 0, 393217, 0, 0, 458753, 65536, 0, 524289, 0, 0, 589825, 0, 0, 655361, 0, 0, 720897, 0, 0, 786433, 65536, 0, 851969, 0, 0, 917505, 0, 0, 2, 65536, 0, 65538, 0, 0, 131074, 0, 0, 196610, 0, 0, 262146, 0, 0, 327682, 0, 0, 393218, 0, 0, 458754, 0, 0, 524290, 0, 0, 589826, 0, 0, 655362, 0, 0, 720898, 0, 0, 786434, 0, 0, 851970, 0, 0, 917506, 65536, 0, 3, 0, 0, 65539, 0, 0, 131075, 0, 0, 196611, 131072, 0, 262147, 0, 0, 327683, 65536, 0, 393219, 0, 0, 458755, 0, 0, 524291, 0, 0, 589827, 0, 0, 655363, 0, 0, 720899, 0, 0, 786435, 0, 0, 851971, 0, 0, 917507, 0, 0, 4, 0, 0, 65540, 0, 0, 131076, 0, 0, 196612, 0, 0, 262148, 65536, 0, 327684, 0, 0, 393220, 0, 0, 458756, 0, 0, 524292, 0, 0, 589828, 0, 0, 655364, 65536, 0, 720900, 0, 0, 786436, 0, 0, 851972, 65536, 0, 917508, 0, 0, 5, 0, 0, 65541, 0, 0, 131077, 0, 0, 196613, 131072, 0, 262149, 0, 0, 327685, 0, 0, 393221, 0, 0, 458757, 0, 0, 524293, 0, 0, 589829, 0, 0, 655365, 131072, 0, 720901, 0, 0, 786437, 0, 0, 851973, 0, 0, 917509, 0, 0, 6, 0, 0, 65542, 0, 0, 131078, 0, 0, 196614, 0, 0, 262150, 0, 0, 327686, 65536, 0, 393222, 0, 0, 458758, 131072, 0, 524294, 131072, 0, 589830, 0, 0, 655366, 0, 0, 720902, 0, 0, 786438, 0, 0, 851974, 0, 0, 917510, 0, 0, 7, 0, 0, 65543, 0, 0, 131079, 0, 0, 196615, 0, 0, 262151, 0, 0, 327687, 0, 0, 393223, 0, 0, 458759, 0, 0, 524295, 0, 0, 589831, 65536, 0, 655367, 0, 0, 720903, 0, 0, 786439, 0, 0, 851975, 0, 0, 917511, 0, 0, 8, 131072, 0, 65544, 0, 0, 131080, 0, 0, 196616, 65536, 0, 262152, 0, 0, 327688, 65536, 0, 393224, 0, 0, 458760, 0, 0, 524296, 0, 0, 589832, 131072, 0, 655368, 0, 0, 720904, 0, 0, 786440, 0, 0, 851976, 0, 0, 917512, 0, 0, 9, 65536, 0, 65545, 0, 0, 131081, 0, 0, 196617, 0, 0, 262153, 0, 0, 327689, 0, 0, 393225, 0, 0, 458761, 0, 0, 524297, 0, 0, 589833, 0, 0, 655369, 0, 0, 720905, 0, 0, 786441, 0, 0, 851977, 0, 0, 917513, 0, 0, 10, 0, 0, 65546, 65536, 0, 131082, 0, 0, 196618, 0, 0, 262154, 0, 0, 327690, 131072, 0, 393226, 0, 0, 458762, 0, 0, 524298, 0, 0, 589834, 458752, 3, 655370, 0, 0, 720906, 0, 0, 786442, 0, 0, 851978, 0, 0, 917514, 0, 0, 11, 0, 0, 65547, 0, 0, 131083, 0, 0, 196619, 0, 0, 262155, 0, 0, 327691, 0, 0, 393227, 131072, 0, 458763, 0, 0, 524299, 0, 0, 589835, 458752, 3, 655371, 0, 0, 720907, 131072, 0, 786443, 0, 0, 851979, 0, 0, 917515, 0, 0, 12, 65536, 0, 65548, 0, 0, 131084, 0, 0, 196620, 0, 0, 262156, 0, 0, 327692, 0, 0, 393228, 0, 0, 458764, 0, 0, 524300, 0, 0, 589836, 458752, 3, 655372, 65536, 0, 720908, 0, 0, 786444, 0, 0, 851980, 0, 0, 917516, 65536, 0, 13, 0, 0, 65549, 0, 0, 131085, 65536, 0, 196621, 0, 0, 262157, 0, 0, 327693, 0, 0, 393229, 0, 0, 458765, 0, 0, 589837, 458752, 3, 655373, 0, 0, 720909, 0, 0, 786445, 0, 0, 851981, 0, 0, 917517, 0, 0, 14, 0, 0, 65550, 0, 0, 131086, 0, 0, 196622, 0, 0, 262158, 0, 0, 327694, 131072, 0, 393230, 0, 0, 458766, 0, 0, 589838, 458752, 3, 655374, 0, 0, 720910, 0, 0, 786446, 0, 0, 851982, 0, 0, 917518, 0, 0, 15, 131072, 0, 65551, 0, 0, 131087, 0, 0, 196623, 0, 0, 262159, 0, 0, 327695, 0, 0, 393231, 65536, 0, 458767, 65536, 0, 524303, 0, 0, 589839, 458752, 3, 655375, 0, 0, 720911, 0, 0, 786447, 0, 0, 851983, 0, 0, 917519, 0, 0, 16, 0, 0, 65552, 0, 0, 131088, 65536, 0, 196624, 0, 0, 262160, 0, 0, 327696, 0, 0, 393232, 0, 0, 458768, 0, 0, 524304, 458752, 3, 589840, 458752, 3, 655376, 0, 0, 720912, 0, 0, 786448, 65536, 0, 851984, 65536, 0, 917520, 0, 0, 17, 0, 0, 65553, 0, 0, 131089, 65536, 0, 196625, 65536, 0, 262161, 0, 0, 327697, 0, 0, 393233, 0, 0, 458769, 0, 0, 524305, 458752, 3, 589841, 0, 0, 655377, 131072, 0, 720913, 65536, 0, 786449, 0, 0, 851985, 0, 0, 917521, 0, 0, 18, 65536, 0, 65554, 0, 0, 131090, 0, 0, 196626, 0, 0, 262162, 65536, 0, 327698, 0, 0, 393234, 0, 0, 458770, 458752, 3, 524306, 458752, 3, 589842, 0, 0, 655378, 0, 0, 720914, 0, 0, 786450, 0, 0, 851986, 0, 0, 917522, 65536, 0, 19, 0, 0, 65555, 0, 0, 131091, 0, 0, 196627, 0, 0, 262163, 0, 0, 327699, 0, 0, 393235, 65536, 0, 458771, 458752, 3, 524307, 0, 0, 589843, 0, 0, 655379, 0, 0, 720915, 0, 0, 786451, 0, 0, 851987, 0, 0, 917523, 0, 0, 20, 0, 0, 65556, 0, 0, 131092, 65536, 0, 196628, 0, 0, 262164, 0, 0, 327700, 0, 0, 393236, 458752, 3, 458772, 458752, 3, 524308, 65536, 0, 589844, 0, 0, 655380, 0, 0, 720916, 0, 0, 786452, 0, 0, 851988, 0, 0, 917524, 0, 0, 21, 0, 0, 65557, 0, 0, 131093, 0, 0, 196629, 0, 0, 262165, 0, 0, 327701, 0, 1, 393237, 0, 2, 458773, 0, 3, 524309, 0, 0, 589845, 0, 0, 655381, 0, 0, 720917, 65536, 0, 786453, 0, 0, 851989, 0, 0, 917525, 0, 0, 22, 131072, 0, 65558, 0, 0, 131094, 0, 0, 196630, 65536, 0, 262166, 0, 0, 327702, 65536, 1, 393238, 65536, 2, 458774, 65536, 3, 524310, 0, 0, 589846, 0, 0, 655382, 0, 0, 720918, 0, 0, 786454, 65536, 0, 851990, 0, 0, 917526, 65536, 0, 524301, 131072, 0, 524302, 65536, 0, 327703, 65536, 805306371, 327704, 65536, 1, 327705, 65536, 805306371, 458775, 65536, 3, 458776, 65536, 805306369, 458777, 65536, 3, 393239, 65536, 2, 393240, 65536, 2, 393241, 65536, 2, 23, 0, 0, 65559, 0, 0, 131095, 131072, 0, 196631, 0, 0, 262167, 131072, 0, 24, 0, 0, 65560, 0, 0, 131096, 0, 0, 196632, 65536, 0, 262168, 0, 0, 25, 0, 0, 65561, 0, 0, 131097, 0, 0, 196633, 0, 0, 262169, 0, 0, 524311, 0, 0, 589847, 65536, 0, 655383, 0, 0, 720919, 0, 0, 786455, 0, 0, 851991, 0, 0, 917527, 0, 0, 524312, 0, 0, 589848, 0, 0, 655384, 0, 0, 720920, 0, 0, 786456, 0, 0, 851992, 0, 0, 917528, 0, 0, 524313, 65536, 0, 589849, 131072, 0, 655385, 131072, 0, 720921, 0, 0, 786457, 0, 0, 851993, 0, 0, 917529, 0, 0)
layer_1/name = "forest"
layer_1/tile_data = PackedInt32Array(0, 262144, 2, 65536, 262144, 2, 1, 262144, 2, 65537, 262144, 2, 131072, 262144, 2, 196608, 262144, 2, 262144, 262144, 2, 327680, 262144, 2, 131073, 262144, 2, 196609, 262144, 2, 262145, 262144, 2, 327681, 262144, 2, 2, 262144, 2, 65538, 262144, 2, 131074, 262144, 2, 196610, 262144, 2, 262146, 262144, 2, 327682, 262144, 2, 3, 262144, 2, 65539, 262144, 2, 4, 262144, 2, 65540, 262144, 2, 5, 262144, 2, 65541, 262144, 2, 131075, 262144, 2, 131076, 262144, 2, 196611, 262144, 2, 196612, 262144, 2, 393218, 262144, 2, 393217, 262144, 2, 458753, 262144, 2, 524288, 262144, 2, 589824, 262144, 2, 458752, 262144, 2, 393216, 262144, 2, 655361, 262144, 2, 720897, 262144, 2, 786434, 262144, 2, 851970, 262144, 2, 917505, 262144, 2, 851968, 262144, 2, 786432, 262144, 2, 720896, 262144, 2, 655360, 262144, 2, 786433, 262144, 2, 851969, 262144, 2, 917504, 262144, 2, 917506, 262144, 2, 917507, 262144, 2, 917508, 262144, 2, 851972, 262144, 2, 851971, 262144, 2, 655362, 262144, 2, 917509, 262144, 2, 917510, 262144, 2, 917511, 262144, 2, 851974, 262144, 2, 851975, 262144, 2, 851976, 262144, 2, 917512, 262144, 2, 851977, 262144, 2, 917513, 262144, 2, 851978, 262144, 2, 917514, 262144, 2, 851979, 262144, 2, 917515, 262144, 2, 851980, 262144, 2, 917516, 262144, 2, 851981, 262144, 2, 917517, 262144, 2, 851982, 262144, 2, 917518, 262144, 2, 851983, 262144, 2, 917519, 262144, 2, 851984, 262144, 2, 917520, 262144, 2, 851985, 262144, 2, 917521, 262144, 2, 851986, 262144, 2, 917522, 262144, 2, 851987, 196608, 2, 917523, 196608, 2, 851988, 196608, 2, 917524, 196608, 2, 851989, 262144, 2, 917525, 196608, 2, 851990, 262144, 2, 917526, 262144, 2, 851973, 262144, 2, 786440, 262144, 2, 786442, 262144, 2, 786443, 262144, 2, 786444, 262144, 2, 720909, 262144, 2, 786445, 262144, 2, 720910, 262144, 2, 786446, 262144, 2, 786447, 262144, 2, 786448, 262144, 2, 786449, 262144, 2, 786450, 262144, 2, 720914, 262144, 2, 720915, 196608, 2, 720916, 262144, 2, 655381, 262144, 2, 720917, 262144, 2, 786453, 196608, 2, 786452, 262144, 2, 786451, 262144, 2, 786454, 262144, 2, 720918, 196608, 2, 655382, 262144, 2, 786438, 262144, 1, 655363, 262144, 1, 589827, 262144, 0, 589825, 262144, 1, 720902, 262144, 0, 720905, 262144, 0, 786441, 262144, 1, 327687, 262144, 1, 262151, 262144, 0, 131080, 262144, 0, 196616, 262144, 1, 6, 262144, 0, 65542, 262144, 2, 17, 262144, 2, 65553, 262144, 2, 131085, 262144, 0, 196621, 262144, 1, 262160, 262144, 0, 327696, 262144, 1, 65549, 262144, 2, 65548, 262144, 2, 65547, 262144, 2, 11, 262144, 2, 10, 262144, 2, 9, 262144, 2, 65545, 262144, 0, 65544, 262144, 2, 65543, 262144, 2, 131079, 262144, 2, 131078, 262144, 2, 196614, 262144, 2, 196613, 262144, 2, 262149, 262144, 2, 524291, 262144, 2, 458754, 262144, 2, 524290, 262144, 2, 262147, 262144, 2, 65546, 262144, 2, 65550, 262144, 2, 12, 262144, 2, 13, 262144, 2, 14, 262144, 2, 15, 262144, 2, 65551, 262144, 2, 65552, 262144, 2, 18, 196608, 2, 65554, 262144, 2, 65555, 262144, 2, 65556, 262144, 2, 65557, 262144, 2, 131093, 196608, 2, 21, 196608, 2, 20, 262144, 2, 19, 262144, 2, 131094, 196608, 2, 65558, 196608, 2, 22, 196608, 2, 131090, 262144, 2, 131089, 262144, 2, 196622, 262144, 2, 131086, 262144, 2, 131084, 262144, 2, 131083, 262144, 2, 131082, 262144, 2, 8, 262144, 2, 7, 262144, 2, 196615, 262144, 2, 262150, 262144, 2, 131077, 262144, 2, 16, 262144, 2, 131091, 196608, 2, 131092, 262144, 2, 196628, 196608, 2, 196629, 196608, 2, 196630, 262144, 2, 262166, 196608, 2, 196627, 262144, 2, 196623, 262144, 1, 131087, 262144, 0, 393233, 262144, 0, 458769, 262144, 1, 655379, 196608, 1, 589843, 196608, 0, 131081, 262144, 1, 589826, 262144, 2, 589846, 196608, 1, 524310, 196608, 0, 327698, 196608, 1, 262162, 196608, 0, 524289, 262144, 0, 655383, 196608, 2, 720919, 196608, 2, 786456, 196608, 2, 851992, 196608, 2, 655384, 196608, 2, 589849, 196608, 2, 589848, 262144, 2, 720920, 196608, 2, 720921, 262144, 2, 786457, 196608, 2, 851991, 262144, 2, 917527, 196608, 2, 917528, 196608, 2, 786455, 196608, 2, 655385, 262144, 2, 851993, 196608, 2, 917529, 196608, 2, 24, 196608, 2, 65560, 196608, 2, 131096, 196608, 2, 196632, 196608, 2, 262169, 196608, 2, 196633, 196608, 2, 131097, 196608, 2, 65561, 196608, 2, 25, 196608, 2, 131095, 196608, 2, 65559, 196608, 2, 262167, 196608, 2, 262168, 262144, 2, 196631, 327680, 0, 23, 262144, 2)
layer_2/name = "houses"
layer_2/tile_data = PackedInt32Array(524296, 0, 6, 524297, 0, 7, 524298, 65536, 7, 524299, 196608, 6, 458763, 131072, 5, 393227, 131072, 4, 393226, 65536, 4, 393225, 196608, 4, 393224, 0, 4, 458760, 0, 5, 458761, 65536, 5, 458762, 196608, 5, 655370, 524288, 6, 655371, 589824, 6, 655372, 589824, 6, 327700, 720896, 6, 655373, 655360, 6, 458759, 589824, 3, 458758, 589824, 3, 458757, 524288, 3, 524293, 524288, 4)
layer_3/name = "decorations"
layer_3/tile_data = PackedInt32Array(524295, 589824, 4, 458758, 524288, 7, 524294, 524288, 8, 262165, 327680, 2, 524309, 327680, 2)

[node name="AudioStreamPlayer" type="AudioStreamPlayer" parent="."]
stream = ExtResource("2_ayhc5")
volume_db = -20.0
autoplay = true
