[gd_scene load_steps=6 format=3 uid="uid://bc1nkcfgmbt1p"]

[ext_resource type="Script" path="res://scenes/game/game.gd" id="1_gqbw6"]
[ext_resource type="PackedScene" uid="uid://cusbe8dqrdmg4" path="res://scenes/menu/victory.tscn" id="2_1i3jr"]
[ext_resource type="PackedScene" uid="uid://dki7bas41d4sm" path="res://scenes/menu/defeat.tscn" id="4_7qgi2"]
[ext_resource type="AudioStream" uid="uid://cq3b3dhb5n26u" path="res://assets/musics/defeat.mp3" id="4_duh11"]
[ext_resource type="AudioStream" uid="uid://d3d3eiyrtqgmy" path="res://assets/musics/dongeon.mp3" id="5_rhhou"]

[node name="Game" type="Node2D"]
script = ExtResource("1_gqbw6")

[node name="Victory" parent="." instance=ExtResource("2_1i3jr")]
visible = false

[node name="Defeat" parent="." instance=ExtResource("4_7qgi2")]
visible = false

[node name="DefeatAudio" type="AudioStreamPlayer" parent="."]
stream = ExtResource("4_duh11")
volume_db = -20.0

[node name="DongeonAudio" type="AudioStreamPlayer" parent="."]
stream = ExtResource("5_rhhou")
volume_db = -20.0

[connection signal="play_again" from="Victory" to="." method="_on_victory_play_again"]
[connection signal="play_again" from="Defeat" to="." method="_on_defeat_play_again"]
