[gd_scene load_steps=4 format=3 uid="uid://bejnbfstyof5"]

[ext_resource type="Script" path="res://scenes/game/player/inventory.gd" id="1_odv7t"]
[ext_resource type="Texture2D" uid="uid://b33lgi1row8sv" path="res://assets/sprites/inventory_border.png" id="2_asqa3"]
[ext_resource type="Texture2D" uid="uid://d0t3gqldanrdk" path="res://assets/sprites/inventory_red_worm.png" id="3_dtxx4"]

[node name="Inventory" type="CanvasLayer"]
script = ExtResource("1_odv7t")

[node name="RedWormSlot" type="TextureRect" parent="."]
offset_left = 10.0
offset_top = 10.0
offset_right = 50.0
offset_bottom = 50.0
texture = ExtResource("2_asqa3")

[node name="Slot" type="Control" parent="RedWormSlot"]
visible = false
anchors_preset = 0
offset_right = 40.0
offset_bottom = 40.0

[node name="Worm" type="TextureRect" parent="RedWormSlot/Slot"]
layout_mode = 2
offset_left = 4.0
offset_top = 4.0
offset_right = 36.0
offset_bottom = 36.0
texture = ExtResource("3_dtxx4")

[node name="Counter" type="Label" parent="RedWormSlot/Slot"]
layout_mode = 2
offset_left = 27.0
offset_top = 18.0
offset_right = 37.0
offset_bottom = 41.0
text = "0"
